<svg id="download_4_" data-name="download (4)" xmlns="http://www.w3.org/2000/svg" width="20" height="20" viewBox="0 0 20 20">
  <defs>
    <style>
      .cls-1 {
        fill: none;
      }

      .cls-2 {
        fill: #1e3150;
      }
    </style>
  </defs>
  <path id="Path_5639" data-name="Path 5639" class="cls-1" d="M0,20V0H20V20Z"/>
  <g id="Group_15079" data-name="Group 15079" transform="translate(2.5 1.667)">
    <path id="Path_5640" data-name="Path 5640" class="cls-2" d="M35.041,27.669H22.959a1.458,1.458,0,0,1-1.32-2.079l1.11-2.234V20.745a6.323,6.323,0,0,1,5.949-6.4h0a6.25,6.25,0,0,1,6.551,6.243v2.77l1.1,2.222a1.458,1.458,0,0,1-1.313,2.091Zm-6.312-12.7h0ZM26.537,28.5a2.5,2.5,0,0,0,4.925,0Z" transform="translate(-21.5 -14.336)"/>
  </g>
</svg>
