<svg xmlns="http://www.w3.org/2000/svg" width="20" height="19.999" viewBox="0 0 20 19.999">
    <g data-name="download (20)">
        <path data-name="Path 5671" d="M0 20V0h20v20z" style="fill:none"/>
        <g data-name="Group 15096">
            <path data-name="Path 5672" d="M9.992 32.25A10.37 10.37 0 0 0 .018 39.8a.625.625 0 0 0 1.211.311 9.121 9.121 0 0 1 17.539 0 .625.625 0 0 0 1.211-.311 10.383 10.383 0 0 0-9.987-7.55zM10 35.583a4.027 4.027 0 1 0 4.027 4.027A4.036 4.036 0 0 0 10 35.583zm0 1.25a2.777 2.777 0 1 1-2.778 2.777A2.768 2.768 0 0 1 10 36.833z" transform="translate(.002 -28.5)" style="fill:#1e3150"/>
        </g>
    </g>
</svg>
