<?xml version="1.0" encoding="UTF-8"?>
<svg xmlns="http://www.w3.org/2000/svg" xmlns:xlink="http://www.w3.org/1999/xlink" width="20px" height="20px" viewBox="0 0 20 20" version="1.1">
<g id="surface1">
<path style=" stroke:none;fill-rule:nonzero;fill:rgb(11.764706%,19.215686%,31.372549%);fill-opacity:1;" d="M 9.695312 1.671875 C 6.328125 1.890625 3.71875 4.703125 3.75 8.070312 L 3.75 11.101562 L 2.648438 13.320312 L 2.640625 13.335938 C 2.445312 13.789062 2.476562 14.3125 2.742188 14.726562 C 3.007812 15.148438 3.46875 15.40625 3.960938 15.414062 L 7.507812 15.414062 C 7.507812 16.796875 8.625 17.914062 10.007812 17.914062 C 11.382812 17.914062 12.507812 16.796875 12.507812 15.414062 L 16.046875 15.414062 C 16.539062 15.40625 17 15.148438 17.265625 14.726562 C 17.53125 14.3125 17.5625 13.789062 17.367188 13.335938 L 17.359375 13.320312 L 16.257812 11.101562 L 16.257812 7.914062 C 16.257812 6.210938 15.554688 4.570312 14.3125 3.398438 C 13.078125 2.21875 11.414062 1.59375 9.703125 1.671875 Z M 9.757812 2.921875 C 11.125 2.851562 12.460938 3.351562 13.453125 4.289062 C 14.445312 5.234375 15.007812 6.546875 15 7.914062 L 15 11.25 C 15 11.34375 15.023438 11.4375 15.0625 11.523438 L 16.226562 13.867188 C 16.273438 13.929688 16.273438 14.015625 16.234375 14.078125 C 16.195312 14.148438 16.117188 14.179688 16.039062 14.171875 L 3.960938 14.171875 C 3.882812 14.179688 3.804688 14.148438 3.765625 14.078125 C 3.726562 14.015625 3.726562 13.929688 3.773438 13.867188 L 4.9375 11.53125 C 4.976562 11.445312 5 11.351562 5 11.25 L 5 8.078125 C 4.96875 5.367188 7.054688 3.109375 9.75 2.921875 Z M 8.75 15.414062 L 11.25 15.414062 C 11.25 16.109375 10.695312 16.664062 10 16.664062 C 9.3125 16.664062 8.75 16.109375 8.75 15.414062 Z M 8.75 15.414062 "/>
</g>
</svg>
